[  0%] Built target CONFIG_LIB
[  0%] Built target generate_T
[  0%] Built target rrc_flag
[  0%] Built target SIMU
[ 50%] Built target PHY_NR
[ 50%] Built target SIMU_COMMON
[ 50%] Built target ITTI
[ 50%] Built target PHY_NR_COMMON
Scanning dependencies of target SCHED_NR_LIB
[ 50%] Built target UTIL
[ 50%] Building C object CMakeFiles/SCHED_NR_LIB.dir/home/abby/Documents/openairinterface5g-develop/openair1/SCHED_NR/fapi_nr_l1.c.o
Scanning dependencies of target MAC_NR_COMMON
[ 50%] Building C object CMakeFiles/MAC_NR_COMMON.dir/home/abby/Documents/openairinterface5g-develop/openair2/LAYER2/NR_MAC_COMMON/nr_mac_common.c.o
[ 50%] Building C object CMakeFiles/SCHED_NR_LIB.dir/home/abby/Documents/openairinterface5g-develop/openair1/SCHED_NR/phy_procedures_nr_gNB.c.o
[ 50%] Linking C static library libMAC_NR_COMMON.a
[ 50%] Built target MAC_NR_COMMON
[ 50%] Built target PHY_NR_UE
[ 50%] Built target dfts
[100%] Built target PHY_COMMON
[100%] Linking C static library libSCHED_NR_LIB.a
[100%] Built target SCHED_NR_LIB
Scanning dependencies of target nr_pbchsim
[100%] Building C object CMakeFiles/nr_pbchsim.dir/home/abby/Documents/openairinterface5g-develop/openair1/SIMULATION/NR_PHY/pbchsim.c.o
[100%] Building C object CMakeFiles/nr_pbchsim.dir/home/abby/Documents/openairinterface5g-develop/openair2/UTIL/OPT/probe.c.o
[100%] Linking CXX executable nr_pbchsim
[100%] Built target nr_pbchsim
[  0%] Built target generate_T
[  0%] Built target CONFIG_LIB
[  0%] Built target rrc_flag
[  0%] Built target PHY_NR_COMMON
[  0%] Built target MAC_NR_COMMON
[  0%] Built target dfts
[ 50%] Built target PHY_NR
[ 50%] Built target SIMU
[ 50%] Built target PHY_NR_UE
[ 50%] Built target SIMU_COMMON
[ 50%] Built target ITTI
[ 50%] Built target SCHED_NR_LIB
[ 50%] Built target UTIL
[100%] Built target PHY_COMMON
[100%] Built target nr_pbchsim
